<?xml version="1.0" encoding="utf-8"?>
<!-- Generator: Adobe Illustrator 21.0.0, SVG Export Plug-In . SVG Version: 6.00 Build 0)  -->
<svg version="1.1" id="Isolation_Mode" xmlns="http://www.w3.org/2000/svg" xmlns:xlink="http://www.w3.org/1999/xlink" x="0px"
	 y="0px" viewBox="0 0 242.5 218.5" enable-background="new 0 0 242.5 218.5" xml:space="preserve">
<g>
	<path fill="#D7F4DB" d="M22.5,154.5c0,28.6,21,42.7,48.4,42.7s52.1-20.1,52.1-48.8c0-28.6-30.7-55-57-47.4
		C37.1,109.4,22.5,125.9,22.5,154.5z"/>
	<path opacity="0.3" fill="#A6E2AF" d="M106.7,25.5c-3.9,0-5.8-4.3-7.7-8.5c-1.9-4.2-3.7-8.2-7.2-8.2c-3.5,0-5.3,4-7.2,8.2
		c-1.9,4.2-3.8,8.5-7.7,8.5c-3.9,0-5.8-4.3-7.7-8.5c-1.9-4.2-3.7-8.2-7.2-8.2c-3.5,0-5.3,4-7.2,8.2c-1.9,4.2-3.8,8.5-7.7,8.5
		c-3.9,0-5.8-4.3-7.7-8.5c-1.9-4.2-3.7-8.2-7.2-8.2c-0.2,0-0.3-0.1-0.3-0.3s0.1-0.3,0.3-0.3c3.9,0,5.8,4.3,7.7,8.5
		c1.9,4.2,3.7,8.2,7.2,8.2s5.3-4,7.2-8.2c1.9-4.2,3.8-8.5,7.7-8.5c3.9,0,5.8,4.3,7.7,8.5c1.9,4.2,3.7,8.2,7.2,8.2
		c3.5,0,5.3-4,7.2-8.2c1.9-4.2,3.8-8.5,7.7-8.5c3.9,0,5.8,4.3,7.7,8.5c1.9,4.2,3.7,8.2,7.2,8.2c0.2,0,0.3,0.1,0.3,0.3
		C107,25.4,106.9,25.5,106.7,25.5z"/>
	<g>
		<path fill="#FFC550" d="M5.3,125.1c-4.2-10.6-2-23.2,6.5-31.8c4.1-4.2,9.2-6.8,14.6-8l3.1,14.3c-6.7,1.5-11.6,7.4-11.6,14.5
			c0,1.9,0.4,3.8,1.1,5.5L5.3,125.1z"/>
		<path fill="#36A448" d="M52.1,137c-4,4-8.8,6.6-13.9,7.8c-2.3,0.6-4.6,0.8-7,0.8c-1.3,0-2.7-0.1-4-0.3c-6.2-0.8-12.1-3.6-16.9-8.4
			c-0.2-0.2-0.5-0.5-0.7-0.7l10.7-10c2.7,2.9,6.5,4.7,10.8,4.7c8.2,0,14.8-6.6,14.8-14.8c0-5.8-3.4-10.9-8.3-13.3l6.5-13.2
			c2.8,1.4,5.5,3.3,7.8,5.6C63.7,106.8,63.7,125.5,52.1,137z"/>
		<path fill="#68AF70" d="M44.3,89.7l-6.5,13.2c-2-1-4.2-1.5-6.5-1.5c-1.1,0-2.1,0.1-3.2,0.3L25,87.4c0.8-0.2,1.5-0.3,2.3-0.4
			c1.3-0.2,2.7-0.3,4-0.3c2.8,0,5.6,0.4,8.3,1.2C41.2,88.3,42.8,89,44.3,89.7z"/>
		<path fill="#D1D9FE" d="M9.8,139c-2.6-2.8-4.5-5.9-5.9-9.2l13.7-5.4c0.7,1.7,1.7,3.3,2.9,4.6L9.8,139z"/>
	</g>
	<g>
		<path fill="#C6F6CE" d="M194.8,88.7c-41.3-9.2-84.1-9.2-125.4,0c-2.4,0.5-4.8-0.9-5.4-3.3c-4.3-18.1-8.7-36.1-13-54.2
			c-0.6-2.4,1.3-4.8,4.3-5.5c50.6-11.3,103-11.3,153.6,0c2.9,0.7,4.9,3.1,4.3,5.5c-4.3,18.1-8.7,36.1-13,54.2
			C199.6,87.8,197.2,89.2,194.8,88.7"/>
		<path fill="#FFFFFF" d="M67.9,82.1C64.2,65.5,60.5,49,56.8,32.4c-0.3-1.3,0.8-2.7,2.4-3c48.1-10.3,97.8-10.3,145.9,0
			c1.6,0.3,2.7,1.7,2.4,3c-3.7,16.6-7.4,33.1-11.1,49.7c-0.3,1.3-1.6,2.1-3,1.9c-40.4-8.7-82.1-8.7-122.5,0
			C69.5,84.2,68.2,83.4,67.9,82.1"/>
		<path fill="#36A448" d="M145.6,33.7c-0.5,13.4-1.1,26.8-1.6,40.1c-0.3,0-0.7,0-1,0c0.5-13.4,1-26.8,1.5-40.1
			C144.8,33.6,145.2,33.7,145.6,33.7"/>
		<path fill="#E2EBF4" d="M72.8,61.7c1.1,5.8,2.2,11.5,3.3,17.3c-0.3,0.1-0.7,0.1-1,0.2c-1.1-5.8-2.3-11.5-3.4-17.3
			C72.1,61.8,72.4,61.7,72.8,61.7z"/>
		<path fill="#E2EBF4" d="M97.1,62c0.5,4.5,1,9,1.5,13.4c-0.3,0-0.7,0.1-1,0.1c-0.5-4.5-1.1-9-1.6-13.4C96.4,62.1,96.8,62.1,97.1,62
			"/>
		<path fill="#E2EBF4" d="M120.2,45.5c0.3,9.4,0.7,18.9,1,28.3c-0.3,0-0.7,0-1,0c-0.4-9.4-0.8-18.9-1.1-28.3
			C119.5,45.5,119.9,45.5,120.2,45.5z"/>
		<path fill="#E2EBF4" d="M170.4,43.4c-1.3,10.7-2.5,21.4-3.8,32.2c-0.3,0-0.7-0.1-1-0.1c1.2-10.7,2.4-21.5,3.7-32.2
			C169.7,43.3,170,43.4,170.4,43.4z"/>
		<path fill="#E2EBF4" d="M193.3,57.7c-1.4,7.1-2.8,14.3-4.2,21.4c-0.3-0.1-0.7-0.1-1-0.2c1.4-7.2,2.8-14.3,4.1-21.5
			C192.6,57.5,193,57.6,193.3,57.7"/>
		<path fill="#E7EAFE" d="M191.1,68.9c0,0.1,0,0.2-0.1,0.3C191.1,69.1,191.1,69,191.1,68.9L191.1,68.9 M70,44.4
			c-0.6,0-1.2,0.1-1.9,0.2c0.1,0.3,0.1,0.7,0.2,1c0.6-0.1,1.1-0.2,1.6-0.2c5.1,0,8.7,4.8,12.4,9.9c3.8,5.3,7.6,10.9,13.2,10.9
			c0.3,0,0.7,0,1-0.1c0-0.3-0.1-0.7-0.1-1c-0.3,0-0.6,0.1-0.9,0.1c-5,0-8.4-5.1-12.3-10.4C79.6,49.7,75.7,44.4,70,44.4 M169.3,40.5
			c-6.1,0-9.8,5.8-13.1,11.4c-3.5,5.8-6.5,11.3-11.8,11.4c0,0.3,0,0.7,0,1c5.9-0.1,9.3-6.1,12.8-11.9c3.4-5.6,6.8-10.9,12.2-10.9
			c0.3,0,0.7,0,1,0.1c6,0.7,8.2,7,10.3,13.6c2,6.3,3.9,12.7,9.2,14.4c0.1-0.3,0.1-0.7,0.2-1c-4.7-1.6-6.4-7.5-8.3-13.7
			c-2.1-6.6-4.5-13.5-11.3-14.3C170.1,40.5,169.7,40.5,169.3,40.5 M119.5,38.6c-0.1,0-0.3,0-0.4,0c-6.8,0.3-9.8,7-12.3,13.4
			c-2.4,6-4.6,11.7-9.4,13c0,0.3,0.1,0.7,0.1,1c5.5-1.3,7.8-7.6,10.3-13.7c2.6-6.4,5.3-12.5,11.3-12.8c0.1,0,0.2,0,0.3,0
			c5.8,0,8.9,5.8,12,11.8c3,6.1,5.9,12.3,11.8,12.9c0-0.3,0-0.7,0-1c-5.2-0.6-7.8-6.2-10.8-12.3C129.5,44.9,126.1,38.6,119.5,38.6"
			/>
		<path fill="#DD7A7D" d="M143.3,63.3c0,0.3,0,0.7,0,1c0.2,0,0.4,0,0.5,0c0.1,0,0.2,0,0.4,0c0.1,0,0.1,0,0.2,0c0-0.3,0-0.7,0-1
			c-0.1,0-0.1,0-0.2,0c-0.1,0-0.2,0-0.3,0C143.7,63.3,143.5,63.3,143.3,63.3"/>
		<path fill="#D2DCF7" d="M97.4,65c-0.3,0.1-0.7,0.1-1,0.2c0,0,0,0,0,0c0,0.3,0.1,0.7,0.1,1c0,0,0,0,0,0c0.4,0,0.7-0.1,1-0.2
			C97.5,65.7,97.5,65.4,97.4,65"/>
		<path fill="#D2DCF7" d="M190.1,68.6c-0.1,0.3-0.1,0.7-0.2,1c0.3,0.1,0.7,0.2,1,0.3c0-0.2,0.1-0.5,0.1-0.7c0-0.1,0-0.2,0.1-0.3
			C190.8,68.8,190.4,68.7,190.1,68.6"/>
		
			<ellipse transform="matrix(0.9821 -0.1885 0.1885 0.9821 -5.0805 13.3542)" fill="#C6F6CE" cx="67.7" cy="33.4" rx="1.5" ry="1.4"/>
		
			<ellipse transform="matrix(0.9851 -0.1722 0.1722 0.9851 -4.4811 13.0949)" fill="#C6F6CE" cx="73.2" cy="32.4" rx="1.5" ry="1.4"/>
		
			<ellipse transform="matrix(0.9877 -0.1561 0.1561 0.9877 -3.9426 12.6828)" fill="#C6F6CE" cx="78.8" cy="31.4" rx="1.5" ry="1.4"/>
	</g>
	<g>
		<g>
			<g>
				<polygon fill="#D6DDEA" points="68.1,207.3 68.7,199 72.6,199.4 71.1,207.9 				"/>
				<path fill="#D84835" d="M71.5,205.9c0.2,0,0.5,0.1,0.7,0.3c1.3,1.1,3,2.3,4.1,2.8c2,0.8,3.2,2,0,2c-3.1,0-4-0.1-5-0.1
					c-1.4,0-0.8,0.1-4.2,0.1c-1.7,0-0.9-3.2,0-4.7c0.3-0.5,0.4-0.9,0.9-0.8L71.5,205.9z"/>
			</g>
			<g>
				<polygon fill="#D6DDEA" points="78.2,207.3 79.9,199.2 83.8,199.6 81.2,207.9 				"/>
				<path fill="#F25F46" d="M81.7,205.9c0.2,0,0.5,0.1,0.7,0.3c1.3,1.1,5.3,3.1,7.4,3.4c2.2,0.3,2.3,1.4-0.8,1.4
					c-3.1,0-5.4-0.3-6.8-0.2c-1.4,0-1.9,0.2-5.3,0.2c-2.6,0-0.9-3.3,0-4.9c0.3-0.5,0.8-0.7,1.4-0.6L81.7,205.9z"/>
			</g>
			<path fill="#FFAF84" d="M118.6,59.8c-1,0.8-2.1,1.4-3,1.9c-0.6,0.1-1.3,0.4-1.8,0.7c-0.7,0.5-4,2.8-4.9,5.8
				c-0.4,0.9-0.9,1.9-1.4,2.8c-0.1,0.2-0.2,0.4-0.3,0.6c-0.1,0.2-0.2,0.4-0.3,0.5c-0.5,0.9-0.9,1.8-1.4,2.6c-1.8,3.1-3.3,5.5-4.1,6
				c-2.7,1.4-10.8,0.4-15.8-0.6c-1.5-0.3-3,0.6-3.3,2.1c-0.3,1.5,0.6,3,2.1,3.3c1.5,0.3,7,1.5,12.1,1.5c2.8,0,5.4-0.3,7.3-1.3
				c2-1,3.9-5.1,5.3-8.8c0.3-0.8,0.6-1.6,0.9-2.4c0.2-0.6,0.4-1.1,0.6-1.6c0,0,0-0.1,0-0.1c0.3-0.9,0.5-1.6,0.7-2.1
				c0.3-1,0.6-1.4,0.9-2.1c0.3-0.7,3.3-0.7,4.5-1.6c1.3-0.8,1.1-3,0.6-4.4c0-0.1-0.1-0.2-0.1-0.3c0.2-0.1,0.5-0.3,0.7-0.5
				C119.8,60.7,121.2,57.7,118.6,59.8z"/>
			<path fill="#FFAF84" d="M86.8,65.7c0-5.7-4.3-10.3-10-10.3c-5.7,0-10.4,4.7-10.4,10.4c0,4,2.1,8.4,5.4,10.1
				c-0.1,2.6,0.1,5.4,1.7,7.9c1.7,2.7,2,3.2,2,3.3c0.6,1,1.7,1.6,2.8,1.6c0.6,0,1.1-0.1,1.7-0.5c1.5-0.9,2.1-2.9,1.1-4.5
				c0,0-0.3-0.4-2.1-3.4c-0.5-0.7-0.8-1.5-0.7-3.3C85,78.2,86.8,70.8,86.8,65.7z"/>
			<path fill="#293549" d="M69,141.3c0,0-2.8-7.2-1-17.1h23.3c0,0,0.6,7,0.1,14.6L69,141.3z"/>
			<path fill="#293549" d="M73.1,132.9C73.1,132.9,73.1,132.9,73.1,132.9c-2.6,0-5.6,0-4.7,5.6c0,0.2,1.1,22.6,0.3,32.1
				c-0.7,8.9-1.3,33.5-1.4,33.8h5.2c0-0.3,4.8-24.2,5.5-33.1c0.8-9.7,1.4-31.8,1.4-32.7C79.5,136.1,75.7,132.9,73.1,132.9z"/>
			<path fill="#293549" d="M91.4,137.7c-0.2-2.6-2.7-3.9-5.3-3.8c-2.6,0.2-7.7,2.2-7.5,4.8c0,0.2,4.6,19.6,4.7,28.4
				c0.1,7.8-0.5,14.3-5.7,37.3l5.1,0.3c1.1-3,10.1-26.9,9.9-37.9C92.5,157.9,91.5,138.5,91.4,137.7z"/>
			<path fill="#FFAF84" d="M69.8,82.8c0,0-3.8,18.1-4.5,21.4c-0.3,1.3-1.2,2.2-2.4,2.5c-0.3,0.1-0.5,0.1-0.8,0.1
				c-1.1,0-2.2-1.7-5.5-6.6c-0.1-0.2-0.2-0.3-0.3-0.5c-0.4-0.6-0.8-1.2-1.2-1.8c-0.1-0.2-0.2-0.3-0.4-0.5C53.8,96.3,53,95,52,93.7
				c-1,0.3-3.8,1.9-4.9,1.9c-1.5,0-3.4-0.1-2.8-1.6c0.6-1.5,2.1-2.5,3.6-2.9c0.8-0.2,2.2-0.6,2.7-0.9c0,0,0.1,0,0.1-0.1
				c0.1,0,0.2-0.1,0.3-0.1c0.1,0,0.2-0.1,0.3-0.1c0.1,0,0.2,0,0.3-0.1c0.1,0,0.2,0,0.3,0c0.1,0,0.2,0,0.3,0c0.1,0,0.2,0,0.3,0
				c0.1,0,0.2,0,0.2,0c0.1,0,0.2,0,0.3,0.1c0.1,0,0.2,0.1,0.2,0.1c0.1,0,0.2,0.1,0.3,0.1c0.1,0,0.2,0.1,0.2,0.1
				c0.1,0.1,0.1,0.1,0.2,0.2c0.1,0,0.1,0.1,0.2,0.2c0.1,0.1,0.1,0.1,0.2,0.2c0,0,0.1,0.1,0.1,0.1c1.1,1.5,2.3,3,3.4,4.5
				c0.1,0.2,0.3,0.3,0.4,0.5c0.5,0.6,1,1.2,1.4,1.7c0.1,0.1,0.3,0.3,0.4,0.4c0.3,0.4,0.6,0.8,0.9,1.1c0.2-0.9,0.4-1.8,0.6-2.8
				c0-0.1,0.1-0.3,0.1-0.4c1.3-6.3,3-14.3,3-14.3L69.8,82.8z"/>
			<path fill="#ED8C62" d="M59.8,98.1l-3.3,2.2c-0.1-0.2-0.2-0.3-0.3-0.5c-0.4-0.6-0.8-1.2-1.2-1.8c-0.1-0.2-0.2-0.3-0.4-0.5l3-2
				c0.1,0.2,0.3,0.3,0.4,0.5c0.5,0.6,1,1.2,1.4,1.7C59.5,97.8,59.6,97.9,59.8,98.1z"/>
			<path fill="#457BF4" d="M106.2,72.4c-3.3,6.4-4.8,7.7-5.1,7.9C98.7,81.5,92.7,81,88,80c-1.2-0.3-2.1-0.6-2.5-0.6H66.2
				c-1.1,0-2,0.8-2.2,1.8l0,0c0,0-2.2,10.3-3.5,16.9c-0.3-0.4-0.7-0.8-1.1-1.3l-5.1,4.1c3.9,4.8,5.9,6.4,7.9,6.4c0,0,0,0,0,0
				c0.3,0,0.6,0,0.9-0.1c0.4-0.1,0.7-0.2,1-0.4c0.9-0.5,1.5-1.4,1.7-2.4c0.2-0.7,0.4-2.1,0.8-3.8c1.1,9,2.7,10.8,1.5,23.6h23.3
				c0,0-0.9-23.7-2.5-36.5c2.3,0.4,5.6,0.5,8.5,0.2c2.8-0.3,4.9-0.8,6.8-1.8c0.9-0.5,2.1-1,6.9-10.2L106.2,72.4z"/>
			<path fill="#B6D0FF" d="M59.3,96.8l-5.1,4.1c-0.3-0.3-0.5-0.7-0.8-1l5.1-4.1C58.8,96.1,59.1,96.5,59.3,96.8z"/>
			<path fill="#ED8C62" d="M110.7,72.7c0,0,0,0.1,0,0.1c-0.2,0.5-0.4,1-0.6,1.6l-3.2-2.3c0.1-0.2,0.2-0.4,0.3-0.5
				c0.1-0.2,0.2-0.4,0.3-0.6L110.7,72.7z"/>
			<path fill="#B6D0FF" d="M111.6,74.8c-0.2,0.4-0.4,0.7-0.5,1l-4.8-3.5c0.2-0.3,0.3-0.7,0.5-1L111.6,74.8z"/>
			<path fill="#3972D8" d="M66.6,100.6c-0.4,1.7-0.7,3.1-0.8,3.8c-0.2,1.1-0.8,1.9-1.7,2.4l1.2-16.3C65.7,93.5,66.1,97,66.6,100.6z"
				/>
			<path fill="#F78834" d="M87.2,53.7c0,0-0.2,1.6-3.8-0.1c-6.9-3.1-13.9-1.5-15.8,0c-1.9,1.4-2.1,2.9-1.6,4.1
				c-1.5,1.4-2.5,3.2-2.5,4.6c0,5.9,3.7,11.9,7.8,11.9c6.5,0,9.3-7.9,9-12.4c0-0.4-0.1-0.8-0.1-1.2c0.2,0,0.4,0.1,0.6,0.1
				C88.3,62.2,87.2,53.7,87.2,53.7z"/>
			<path fill="#FFAF84" d="M76.7,66.1c0,1.1,0.5,2.1,1.3,2.7c0.9,0.8,2.3,0.1,2.3-1.1v-3.2c0-1.2-1.4-1.9-2.3-1.1
				C77.1,64.1,76.7,65.1,76.7,66.1z"/>
			<g>
				<path fill="#687C99" d="M81.8,204l-0.5-0.2c0.1-0.3,7.3-23.4,8.1-27c0.6-2.6,1.6-7.4,1.4-11.2c-0.1-3.2-1.9-28.7-1.9-28.9
					c0.3-3.1,0.5-13.1,0.5-13.2l0.5,0c0,0.1-0.2,10.1-0.5,13.2c0,0.2,1.8,25.7,1.9,28.9c0.1,3.8-0.8,8.7-1.4,11.3
					C89.1,180.6,81.9,203.7,81.8,204z"/>
				<rect x="67.3" y="126.2" fill="#687C99" width="7.8" height="0.5"/>
			</g>
		</g>
		<g>
			<defs>
				<path id="SVGID_1_" d="M91.3,124.1c0,0-0.9-23.7-2.5-36.5c2.3,0.4,5.6,0.5,8.5,0.2c2.8-0.3,4.9-0.8,6.8-1.8
					c0.9-0.5,2.1-1,6.9-10.2c0.2-0.3,0.4-0.7,0.5-1l-1.3-0.9c0.1-0.4,0.2-0.7,0.4-1c0,0,0-0.1,0-0.1c0.3-0.9,0.5-1.6,0.7-2.1
					c0.3-1,0.6-1.4,0.9-2.1c0.3-0.7,3.3-0.7,4.5-1.6c1.3-0.8,1.1-3,0.6-4.4c0-0.1-0.1-0.2-0.1-0.3c0.2-0.1,0.5-0.3,0.7-0.5
					c1.8-1.2,3.2-4.1,0.6-2.1c-1,0.8-2.1,1.4-3,1.9c-0.6,0.1-1.3,0.4-1.8,0.7c-0.7,0.5-4,2.8-4.9,5.8c-0.4,0.9-0.9,1.9-1.4,2.8
					c-0.1,0.2-0.2,0.4-0.3,0.6c0,0,0,0,0,0l-0.4-0.3c-0.2,0.4-0.4,0.7-0.5,1c-3.3,6.4-4.8,7.7-5.1,7.9C98.7,81.5,92.7,81,88,80
					c-1.2-0.3-2.1-0.6-2.5-0.6h-6.8c-0.2-0.6-0.4-1.3-0.3-2.6c6.6,1.3,8.5-6.1,8.5-11.2c0-2.1-0.6-4-1.6-5.6c2.5-1.9,2-6.3,2-6.3
					s-0.2,1.6-3.8-0.1c-6.9-3.1-13.9-1.5-15.8,0c-1.9,1.4-2.1,2.9-1.6,4.1c-1.5,1.4-2.5,3.2-2.5,4.6c0,5,2.6,10.1,5.9,11.5
					c0.7,0.8,1.5,1.5,2.4,2c-0.1,1.2,0,2.4,0.2,3.6h-5.8c-1.1,0-2,0.8-2.2,1.8l0,0c0,0-2.2,10.3-3.5,16.9c-0.3-0.4-0.7-0.8-1.1-1.3
					c-0.3-0.3-0.5-0.6-0.8-1l-0.4,0.3c0-0.1-0.1-0.1-0.1-0.2c-0.1-0.2-0.3-0.3-0.4-0.5c-1.2-1.5-2.3-3-3.4-4.5c0,0-0.1-0.1-0.1-0.1
					c-0.1-0.1-0.1-0.1-0.2-0.2c-0.1-0.1-0.1-0.1-0.2-0.2c-0.1-0.1-0.1-0.1-0.2-0.2c-0.1,0-0.1-0.1-0.2-0.1c-0.1,0-0.2-0.1-0.3-0.1
					c-0.1,0-0.1-0.1-0.2-0.1c-0.1,0-0.2,0-0.3-0.1c-0.1,0-0.2,0-0.2,0c-0.1,0-0.2,0-0.3,0c-0.1,0-0.2,0-0.3,0c-0.1,0-0.2,0-0.3,0
					c-0.1,0-0.2,0-0.3,0.1c-0.1,0-0.2,0-0.3,0.1c-0.1,0-0.2,0.1-0.3,0.1c0,0-0.1,0-0.1,0.1c-0.6,0.3-2,0.7-2.7,0.9
					c-1.5,0.4-2.9,1.4-3.6,2.9c-0.6,1.4,1.3,1.6,2.8,1.6c1.1,0,4-1.6,4.9-1.9c1,1.4,1.8,2.6,2.6,3.8c0.1,0.2,0.2,0.3,0.4,0.5
					c0.1,0.2,0.2,0.3,0.3,0.5l-1.8,1.5c0.3,0.4,0.5,0.7,0.8,1c3.9,4.8,5.9,6.4,7.9,6.4c0,0,0,0,0,0c0.3,0,0.6,0,0.9-0.1
					c0.4-0.1,0.7-0.2,1-0.4c0.9-0.5,1.5-1.4,1.7-2.4c0-0.2,0.1-0.4,0.1-0.7c0.2-0.8,0.4-1.8,0.7-3.1c1.1,8.9,2.7,10.8,1.5,23.6
					 M68,124.1c-0.1,0.7-0.2,1.4-0.3,2.1h-0.5v0.5h0.4c-0.6,5.7,0.2,10.2,0.8,12.6c0.2,4.2,0.9,22.8,0.3,31.2
					c-0.7,8.9-1.3,33.5-1.4,33.8h1l-0.1,1.1l-0.2,0c-0.6-0.1-0.7,0.3-0.9,0.8c-0.9,1.5-1.7,4.7,0,4.7c3.5,0,2.8-0.2,4.2-0.1
					c0.9,0,1.9,0.1,5,0.1c0.2,0,0.3,0,0.4,0c0,0,0.1,0,0.1,0c3.4,0,3.9-0.2,5.3-0.2c1.4,0,3.7,0.2,6.8,0.2c3.1,0,3-1.1,0.8-1.4
					c-2.1-0.3-6.1-2.3-7.4-3.4c-0.2-0.1-0.4-0.2-0.6-0.3l0.4-1.2l0.6,0c1.1-3,10.1-26.9,9.9-37.9c-0.2-8.4-1-26-1.2-28.9
					c0.5-7.3-0.1-13.9-0.1-13.9 M78.6,205.5l-0.2,0c-0.6-0.1-1.1,0.2-1.4,0.6c-0.4,0.7-1,1.7-1.2,2.6c-1.1-0.6-2.4-1.6-3.6-2.5
					c-0.2-0.2-0.4-0.2-0.7-0.3l0.3-1.6h0.8c0-0.3,4.8-24.2,5.5-33.1c0.6-7.6,1.1-22.7,1.3-29.4c1.3,5.9,3.9,18.6,4,25.2
					c0.1,7.8-0.5,14.3-5.7,37.3l1.1,0.1L78.6,205.5z"/>
			</defs>
			<clipPath id="SVGID_2_">
				<use xlink:href="#SVGID_1_"  overflow="visible"/>
			</clipPath>
			<path clip-path="url(#SVGID_2_)" fill="#E0E0E0" d="M58.3,40.7c-8.8-8.9-16.7-12.4-27.9-12c-8.6,0.3-17.4,1.7-22.2,13.8
				C0.8,61,16.5,71.3,14,89.8c-2.1,15.9-16,15.9-19.9,32.6c-2,8.7,2.3,20.5,13.2,32.7c19.1,21.6,61.8,24.9,73.9-20.4
				C90,101.7,76.7,59.3,58.3,40.7z"/>
		</g>
	</g>
	<g>
		<g id="_x3C_grupa_x3E_">
			<g>
				<g>
					<path fill="#CC5605" d="M153.7,129.3h27.8c0.9,0,1.4-0.7,1.2-1.6l-4.6-16.5c-0.3-0.9-1.2-1.6-2.1-1.6h-27.8
						c-0.9,0-1.4,0.7-1.2,1.6l4.6,16.5C151.9,128.6,152.8,129.3,153.7,129.3z"/>
					<path fill="#F78834" d="M154.3,129.3H182c0.9,0,1.4-0.7,1.2-1.6l-4.6-16.5c-0.3-0.9-1.2-1.6-2.1-1.6h-27.8
						c-0.9,0-1.4,0.7-1.2,1.6l4.6,16.5C152.5,128.6,153.4,129.3,154.3,129.3z"/>
				</g>
				<path fill="#F7F7F7" d="M154.2,125.3l-3-10.8c-0.3-1.2,0.5-2.3,1.8-2.3h21.9c0.8,0,1.5,0.5,1.8,1.3l3,10.8
					c0.3,1.2-0.5,2.3-1.8,2.3H156C155.2,126.7,154.4,126.1,154.2,125.3z"/>
			</g>
			<g>
				<path fill="#CC5605" d="M152.5,129.6c0.1,0.3,0.4,0.5,0.8,0.5h29.3c0.4,0,0.7-0.2,0.8-0.5c0.1-0.1-0.1-0.3-0.2-0.3h-30.5
					C152.6,129.3,152.4,129.4,152.5,129.6z"/>
				<path fill="#FCD592" d="M160.1,129.6c0.1,0.3,0.4,0.5,0.8,0.5h29.3c0.4,0,0.7-0.2,0.8-0.5c0.1-0.1-0.1-0.3-0.2-0.3h-30.5
					C160.2,129.3,160.1,129.4,160.1,129.6z"/>
				<path fill="#FFF3E1" d="M172.8,129.3v0.1c0,0.2,0.1,0.3,0.3,0.3h5c0.2,0,0.3-0.1,0.3-0.3v-0.1H172.8z"/>
			</g>
		</g>
		<g>
			<path fill="#F4B038" d="M198.7,132.8c-0.4-2.5-2.7-4.3-5.3-3.9c-2.7,0.4-26.8,4.4-30.4,20c-2.2,9.5,4.3,26.1,9.4,39.3l4.4-1.3
				c-3.7-11.3-5.9-30.7-4.7-35.9c1.9-8,17.4-12.1,22.7-12.9C197.4,137.8,199.1,135.4,198.7,132.8z"/>
			<path fill="#FFAF84" d="M200.6,63.4c-0.1,0-0.1-0.1-0.2-0.1c-1.1-4.6-5.2-9.2-10.1-9.2c-4.8,0-8.9,4.5-10.1,9
				c-0.3,0-0.6,0.1-0.9,0.3c-0.8,0.7-1.3,1.6-1.3,2.7c0,1.1,0.5,2.1,1.3,2.7c0.3,0.3,0.7,0.4,1.1,0.3c0.9,2.8,3.9,7.2,8.3,7.5
				c0,1.7-0.3,2.8-0.8,3.6c-1.9,3-2.1,3.4-2.1,3.4c-0.9,1.6-0.4,3.6,1.1,4.5c0.5,0.3,1.1,0.5,1.7,0.5c1.1,0,2.2-0.6,2.8-1.6
				c0-0.1,0.4-0.6,2-3.3c1.6-2.5,1.9-5.6,1.7-8.1c2.3-1.2,4-4,4.8-6.5c0.2-0.1,0.3-0.1,0.5-0.2c0.8-0.7,1.3-1.6,1.3-2.7
				C201.9,65.1,201.4,64.1,200.6,63.4z"/>
			<path fill="#FFC550" d="M198.1,139.3c0,0,2.8-5.2,1-15.2h-23.3c0,0-0.3,7.6,0.2,15.2H198.1z"/>
			<path fill="#FFC550" d="M180.7,130.2c-4.2,0-7.9,0-11.2-0.1c-17.2-0.1-22.4-0.2-24.8,4.2c-0.8,1.5-1.4,4.1,0.7,7.4
				c5.4,8.5,24.2,21.7,26.2,23.4l3.5-4.3c-4.5-3.6-14.2-14.8-19.7-21.3c3.4-0.2,8.6-0.1,14.1-0.1c3.3,0,7.1,0.1,11.3,0.1
				c2.6,0,4.7-2.1,4.7-4.7S183.3,130.2,180.7,130.2z"/>
			<path fill="#FFAF84" d="M215.4,102.2c0-2.1-2.3-6.5-5.1-11c-2.3-3.6-5-7.4-7-10.2c-0.9-1.2-2.6-1.5-3.9-0.6
				c-1.2,0.9-1.5,2.6-0.6,3.9c2.4,3.3,5,7,7,10.2c2.1,3.3,3.7,6.1,4,7.3c-1,2-7.2,8.2-12.5,13c-0.1,0.1-0.2,0.2-0.2,0.2
				c0,0-0.1,0.1-0.1,0.1c-0.1,0.1-0.2,0.2-0.2,0.3c0,0,0,0.1-0.1,0.1c-0.1,0.1-0.1,0.3-0.2,0.4c0,0,0,0.1,0,0.1
				c0,0.1-0.1,0.3-0.1,0.4c0,0,0,0.1,0,0.1c0,0.1,0,0.2,0,0.4c0,0.1,0,0.1,0,0.2c0,0.1,0,0.2,0.1,0.3c0,0.1,0,0.1,0,0.2
				c0,0.1,0.1,0.2,0.1,0.3c0,0.1,0.1,0.1,0.1,0.2c0.1,0.1,0.1,0.2,0.2,0.3c0,0,0.1,0.1,0.1,0.1c0,0,0,0,0,0c0,0,0,0,0,0c0,0,0,0,0,0
				c0.5,0.5,2.3,2.5,4.6,3.3c0.3,0.1,0.6,0.2,0.9,0.2c1.1,0,1.7-1.7,2.1-2.9c0.5-1.4-1.5-2.8-3-3.3c0,0-0.1,0-0.1,0
				C209.6,110,215.4,105.4,215.4,102.2z"/>
			<path fill="#ED8C62" d="M210.3,91.2l-3,2.3l-1.4,1.1c-2-3.2-4.5-6.9-7-10.2c-0.9-1.2-0.6-3,0.6-3.9c1.2-0.9,3-0.6,3.9,0.6
				C205.4,83.8,208,87.6,210.3,91.2z"/>
			<path fill="#F25F46" d="M210.5,90.2l-3.3,2.1l-2.8,1.8l-0.5-0.8l-1.4-2.3c-1-1.6-1.9-3.1-2.6-4.1c-0.7-1-1.1-1.7-1.1-1.7
				c-0.3-0.4-0.4-0.9-0.5-1.4c-0.2-1.4,0.3-2.8,1.6-3.6c0.4-0.3,0.9-0.4,1.4-0.5c0.3,0,0.5-0.1,0.8,0c1.1,0.1,2.2,0.6,2.8,1.6
				c0.1,0.1,1.7,2.7,3.8,6l1.4,2.3L210.5,90.2z"/>
			<path fill="#E24530" d="M207.2,92.2l-2.8,1.8l-0.5-0.8l-1.4-2.3c-1-1.6-1.9-3.1-2.6-4.1c-0.7-1-1.1-1.7-1.1-1.7
				c-0.3-0.4-0.4-0.9-0.5-1.4c-0.2-1.4,0.3-2.8,1.6-3.6c0.4-0.3,0.9-0.4,1.4-0.5c0.3,0,0.5-0.1,0.8,0c0.6,0.5,1,1.2,1.3,2
				c0.1,0.2,1.6,4.2,3.4,9.4L207.2,92.2z"/>
			<path fill="#F25F46" d="M203.3,82.2c-1.6,9.3-4.8,32.6-4.1,42h-23.3c0,0,0.3-6.3,0.7-14.1c0.6-10.4,1.6-23.6,2.8-28.6
				c0-0.1,0-0.1,0-0.2c0.3-1,1.2-1.7,2.2-1.7H201C202.4,79.5,203.5,80.8,203.3,82.2z"/>
			<path fill="#36A448" d="M195.9,56.8c-2.2,2.8-15.2,4.6-15.2-1.8c0-1.4,0.9-2,0.9-2s0.1,1,0.6,1.2c0,0,2.2-1.3,4.5-1.8
				c0,0-0.4,1,1.2,0.8C192.6,52.6,199.6,52.1,195.9,56.8z"/>
			<path fill="#E24530" d="M185.3,86.1c0,0-0.1,0.9-0.3,2.3c-0.2,1.4-0.5,3.4-0.8,5.5l-0.4,3.1l-7.2,13.1
				c0.6-10.4,1.6-23.6,2.8-28.6c0.3-0.2,0.6-0.4,0.9-0.5c0.6-0.2,1.2-0.2,1.9,0c1.3,0.4,2.4,1.6,2.8,3
				C185.3,84.6,185.4,85.3,185.3,86.1z"/>
			<path fill="#36A448" d="M186.9,54.9c-2.4,0.6-4.4,4.8-4.6,7.2c-0.4,4.5,3,11.7,10.1,11.7c8.4,0,9.2-9,8.8-11.3
				c-0.4-2.3-1.8-7.3-5.4-7.8C193.6,54.5,189.4,54.2,186.9,54.9z"/>
			<path fill="#FFAF84" d="M183.2,80.6C183.2,80.6,183.2,80.6,183.2,80.6c-0.3-0.1-0.5-0.3-0.8-0.3c-0.6-0.1-1.3-0.1-1.9,0.1
				c-0.6,0.2-1.1,0.5-1.6,1c0,0,0,0,0,0c-0.1,0.2-0.2,0.4-0.2,0.7c-0.1,0.4-1.3,5.7-2.5,11.6c-1.3,6.1-2.7,12.8-3.1,15.5
				c-0.8,5.7-9.7,10.2-13,11.5c-0.1,0-0.1,0-0.1,0.1c-0.1,0-0.2,0.1-0.3,0.2c-0.1,0.1-0.2,0.1-0.3,0.2c0,0-0.1,0.1-0.2,0.1
				c0,0,0,0,0,0c0,0,0,0,0,0c-0.7,0.7-3.5,3.5-3.2,6.9c0.1,1.4,0.2,1.8,1.5,2.2c0.7,0.2,1.4,0.2,2.1,0.2c1.5,0,2.4-0.4,2.2-2
				c0-0.4-0.8-4-0.1-4.7c7.9-3.3,15.5-4.8,16.9-13.9c0.4-2.5,1.6-8.5,2.8-14.2c1.3-6.4,2.6-12.3,2.7-12.5
				C184.3,82.3,183.9,81.3,183.2,80.6z"/>
			<path fill="#ED8C62" d="M184.1,83.3c0,0.1-1.3,6.1-2.7,12.5l-5.2-2c1.2-5.9,2.4-11.2,2.5-11.6c0-0.2,0.1-0.5,0.2-0.7c0,0,0,0,0,0
				c0.4-0.5,1-0.8,1.6-1c0.6-0.2,1.2-0.2,1.9-0.1c0.3,0.1,0.6,0.2,0.8,0.3c0,0,0,0,0,0C183.9,81.3,184.3,82.3,184.1,83.3z"/>
			<path fill="#F25F46" d="M175.9,92.8l7.1,1.4l0.2-0.9l0.5-2.7c0.4-1.9,0.7-3.6,1-4.8c0.3-1.2,0.4-2,0.4-2c0.1-0.6,0.1-1.3-0.1-1.9
				c-0.4-1.2-1.4-2.2-2.7-2.4c-0.6-0.1-1.3-0.1-1.9,0.1c-1.2,0.4-2.2,1.4-2.4,2.7c0,0.1-0.7,3.1-1.5,7l-0.5,2.7L175.9,92.8z"/>
			<g>
				<rect x="192" y="126.8" fill="#EFA21B" width="7.8" height="0.5"/>
				<path fill="#EFA21B" d="M171.1,163.3c-8.3-6.1-18.3-15.7-22.6-21.8c-1.5-2.1-1.8-3.8-1.1-5.3c1.1-2.2,4.7-3.3,10-3.3
					c1.8,0,4.9,0,8.1,0c3.4,0,7,0,9.2,0c4.3,0,4.3-2,4.3-2.8v-6.3h0.5v6.3c0,2.2-1.6,3.3-4.8,3.3c-2.2,0-5.8,0-9.2,0
					c-3.2,0-6.3,0-8.1,0c-5.1,0-8.6,1.1-9.6,3.1c-0.6,1.3-0.3,2.9,1.1,4.8c4.3,6,14.1,15.5,22.4,21.7L171.1,163.3z"/>
			</g>
			<g>
				<path fill="#293549" d="M170.6,163c-0.2,0.1-0.4,0.3-0.5,0.6c-0.7,1.6-3.4,5.1-5.2,6.3c-1.8,1.3-1.5,2.3,1.3,0.9
					c2.8-1.4,4.7-2.6,6-3.2c1.3-0.6,1.8-0.6,4.9-2.1c2.3-1.1-0.7-3.4-2.2-4.4c-0.5-0.3-1.1-0.3-1.6,0L170.6,163z"/>
			</g>
			<g>
				<path fill="#293549" d="M172.6,187.1c-0.1,0.2-0.2,0.4-0.2,0.7c-0.1,1.7-1,5.6-3,6.9c-1.9,1.2-1.3,2.1,1.6,0.9
					c2.5-1.1,3.9-3.9,4.9-4.9c1-1,1.5-1.3,3.7-3.8c1.8-1.9-1.9-2.9-3.6-3.2c-0.5-0.1-1.1,0.1-1.4,0.6L172.6,187.1z"/>
			</g>
		</g>
		<g>
			<defs>
				<path id="SVGID_3_" d="M215.4,102.2c0-2.1-2.3-6.5-5.1-11c-0.1-0.2-0.3-0.5-0.4-0.7l0.6-0.4l-0.5-0.8l-1.4-2.3
					c-2.1-3.3-3.7-5.9-3.8-6c-0.7-1-1.7-1.6-2.8-1.6c-0.2,0-0.4,0-0.7,0c-0.1,0-0.2,0-0.3,0h-5.8c0.2-1.3,0.3-2.6,0.2-3.8
					c2.3-1.2,4-4,4.8-6.5c0.2-0.1,0.3-0.1,0.5-0.2c0.8-0.7,1.3-1.6,1.3-2.7c0-0.8-0.3-1.5-0.7-2.1c0-0.7,0-1.2-0.1-1.6
					c-0.4-2-1.5-6.2-4.3-7.4c0.7-2.8-4.9-2.4-9-1.8c-1.7,0.2-1.2-0.8-1.2-0.8c-2.2,0.5-4.5,1.8-4.5,1.8c-0.5-0.3-0.6-1.2-0.6-1.2
					s-0.9,0.6-0.9,2c0,1.6,0.8,2.6,2,3.3c-1.1,1.4-2,3.1-2.4,4.8c-0.3,0-0.6,0.1-0.9,0.3c-0.8,0.7-1.3,1.6-1.3,2.7
					c0,1.1,0.5,2.1,1.3,2.7c0.3,0.3,0.7,0.4,1.1,0.3c0.9,2.8,3.9,7.2,8.3,7.5c0,1.2-0.1,2.1-0.4,2.8h-6.7c0,0,0,0-0.1,0
					c-0.4,0-0.8,0-1.1,0.2c-1.2,0.4-2.2,1.4-2.4,2.7c0,0.1-0.7,3.1-1.5,7l-0.5,2.7l-0.2,0.9l0.5,0.1c-0.1,0.3-0.1,0.5-0.2,0.8
					c-1.3,6.1-2.7,12.8-3.1,15.5c-0.8,5.7-9.7,10.2-13,11.5c-0.1,0-0.1,0-0.1,0.1c-0.1,0-0.2,0.1-0.3,0.2c-0.1,0.1-0.2,0.1-0.3,0.2
					c0,0-0.1,0.1-0.2,0.1c0,0,0,0,0,0c0,0,0,0,0,0c-0.7,0.7-3.5,3.5-3.2,6.9c0.1,1.2,0.2,1.7,1,2c-7.6,0.2-10.6,1.1-12.3,4.2
					c-0.8,1.5-1.4,4.1,0.7,7.4c3.3,5.1,11.3,11.9,17.7,16.9c0.5,3.3,1.4,6.9,2.5,10.6c-0.2,0.2-0.5,0.4-0.7,0.5
					c-1.8,1.2-1.5,2.2,1.1,1c1.8,5.8,4.1,11.8,6.2,17.2c-0.1,1.8-1,5.4-3,6.7c-1.9,1.2-1.3,2.1,1.6,0.9c2.5-1.1,3.9-3.9,4.9-4.9
					c1-1,1.5-1.3,3.7-3.8c1.8-1.9-1.9-2.9-3.6-3.2c0,0,0,0,0,0c-1.3-5-2.4-10.9-3.1-16.3c1-0.4,1.8-0.6,4.4-1.9
					c2.3-1.1-0.7-3.4-2.2-4.4c0,0,0,0-0.1,0l0.1-0.2c-0.9-0.7-2-1.7-3.2-2.9c-0.1-3-0.1-5.5,0.3-6.9c1.4-6.1,10.7-9.9,17.4-11.7h8.6
					c0,0,2.2-4.1,1.4-12h0.2v-0.5h-0.2c-0.1-0.8-0.2-1.7-0.4-2.6l0,0c-0.1-1-0.1-2.2-0.1-3.5c0.7,0.6,1.6,1.2,2.6,1.5
					c0.3,0.1,0.6,0.2,0.9,0.2c1.1,0,1.7-1.7,2.1-2.9c0.5-1.4-1.5-2.8-3-3.3c0,0-0.1,0-0.1,0C209.6,110,215.4,105.4,215.4,102.2z
					 M161.9,128.6c0-0.4-0.8-4-0.1-4.7c5.8-2.4,11.4-3.9,14.5-8c-0.3,4.9-0.4,8.3-0.4,8.3h0c0,0-0.1,2.5-0.1,6c-2.2,0-4.4,0-6.3,0
					c-3,0-5.7,0-8,0C161.8,129.8,161.9,129.3,161.9,128.6z M155.3,139.5c3.3-0.2,8.2-0.1,13.4-0.1c-2.6,2.5-4.7,5.5-5.6,9.1
					C160.3,145.3,157.5,142.1,155.3,139.5z M199.4,113c0.5-7.3,1.6-15.9,2.6-22.7c0.1,0.2,0.3,0.4,0.4,0.7l1.4,2.3l0.5,0.8l0.8-0.5
					c0.2,0.4,0.5,0.7,0.7,1.1c2.1,3.3,3.7,6.1,4,7.3C208.9,103.6,204.2,108.6,199.4,113z"/>
			</defs>
			<clipPath id="SVGID_4_">
				<use xlink:href="#SVGID_3_"  overflow="visible"/>
			</clipPath>
			<path clip-path="url(#SVGID_4_)" fill="#E0E0E0" d="M238.9,64.6c-8.8-8.9-16.7-12.4-27.9-12c-8.6,0.3-17.4,1.7-22.2,13.8
				c-7.4,18.5,8.3,28.8,5.9,47.3c-2.1,15.9-16,15.9-19.9,32.6c-2,8.7,2.3,20.5,13.2,32.7c19.1,21.6,61.8,24.9,73.9-20.4
				C270.7,125.6,257.3,83.2,238.9,64.6z"/>
		</g>
		<g>
			<rect x="175" y="139" fill="#333333" width="24.7" height="71.9"/>
			<rect x="209.3" y="193.9" opacity="0.7" fill="#C6F6CE" width="24.7" height="17"/>
			<rect x="140.8" y="181.3" opacity="0.7" fill="#C6F6CE" width="24.7" height="29.7"/>
			<rect x="106.7" y="162.9" opacity="0.7" fill="#C6F6CE" width="24.7" height="48"/>
			<path fill="#E2E2E2" d="M55.2,214.1h183.7c0.9,0,1.6-0.7,1.6-1.6l0,0c0-0.9-0.7-1.6-1.6-1.6H55.2c-0.9,0-1.6,0.7-1.6,1.6l0,0
				C53.6,213.4,54.3,214.1,55.2,214.1z"/>
		</g>
	</g>
	<g>
		<g>
			<rect x="111.5" y="105.5" fill="#C6F6CE" width="13.5" height="4.2"/>
			<rect x="108.7" y="99.4" fill="#E2EBF4" width="1.5" height="36.3"/>
			<rect x="111.5" y="111.5" fill="#C6F6CE" width="8.2" height="4.2"/>
			<rect x="121.7" y="111.5" fill="#C6F6CE" width="11.3" height="4.2"/>
			<rect x="111.5" y="117.5" fill="#C6F6CE" width="5.4" height="4.2"/>
			<rect x="111.5" y="129.5" fill="#C6F6CE" width="5.7" height="4.2"/>
			<rect x="120.9" y="129.5" fill="#C6F6CE" width="13.8" height="4.2"/>
		</g>
		<g>
			<rect x="14.1" y="44.1" fill="#C6F6CE" width="24.7" height="4.2"/>
			<rect x="11.2" y="44.1" fill="#E2EBF4" width="1.5" height="36.3"/>
			<rect x="14.1" y="50.1" fill="#C6F6CE" width="28.3" height="4.2"/>
			<rect x="14.1" y="56.1" fill="#C6F6CE" width="18.7" height="4.2"/>
			<rect x="14.1" y="68.1" fill="#C6F6CE" width="3.6" height="4.2"/>
			<rect x="19.9" y="68.1" fill="#C6F6CE" width="8.5" height="4.2"/>
		</g>
		<g>
			
				<rect x="202.4" y="38.6" transform="matrix(0.7072 -0.707 0.707 0.7072 30.4406 156.319)" fill="#61BA6B" width="3" height="5.5"/>
			<path fill="#36A448" d="M218.7,56.2L218.7,56.2c-1.1,1.1-2.8,1-3.9-0.1l-11.3-12.3l2.8-2.8l12.3,11.3
				C219.7,53.3,219.8,55.1,218.7,56.2z"/>
			<path opacity="0.4" fill="#BFE2EF" d="M206,29.9c0,7.5-6.1,13.5-13.5,13.5c-3.2,0-6.2-1.1-8.5-3c-0.8-0.7-1.6-1.4-2.2-2.2
				c-0.4-0.5-0.8-1-1.1-1.6c-1-1.7-1.6-3.6-1.7-5.6c0-0.3,0-0.7,0-1.1c0-7.5,6.1-13.5,13.5-13.5c0.4,0,0.7,0,1.1,0
				c2,0.2,3.9,0.8,5.6,1.7c0.6,0.3,1.1,0.7,1.6,1.1c0.8,0.6,1.6,1.4,2.2,2.2C204.8,23.7,206,26.7,206,29.9z"/>
			<path opacity="0.3" fill="#FFFFFF" d="M199.1,18.1l-18.5,18.5c-1-1.7-1.6-3.6-1.7-5.6l14.6-14.6
				C195.5,16.5,197.4,17.1,199.1,18.1z"/>
			<path opacity="0.3" fill="#FFFFFF" d="M202.9,21.4l-19,19c-0.8-0.7-1.6-1.4-2.2-2.2l19-19C201.5,19.8,202.3,20.6,202.9,21.4z"/>
			<path fill="#A8E2AF" d="M192.4,44.9c-4,0-7.8-1.6-10.6-4.4c-2.8-2.8-4.4-6.6-4.4-10.6c0-4,1.6-7.8,4.4-10.6
				c2.8-2.8,6.6-4.4,10.6-4.4c4,0,7.8,1.6,10.6,4.4l0,0l0,0c2.8,2.8,4.4,6.6,4.4,10.6c0,4-1.6,7.8-4.4,10.6
				C200.2,43.4,196.4,44.9,192.4,44.9z M192.4,17.8c-3.2,0-6.2,1.3-8.5,3.5c-2.3,2.3-3.5,5.3-3.5,8.5c0,3.2,1.3,6.2,3.5,8.5
				c2.3,2.3,5.3,3.5,8.5,3.5c3.2,0,6.2-1.3,8.5-3.5c2.3-2.3,3.5-5.3,3.5-8.5c0-3.2-1.3-6.2-3.5-8.5l0,0
				C198.6,19.1,195.6,17.8,192.4,17.8z"/>
		</g>
	</g>
</g>
</svg>
