<?xml version="1.0" encoding="utf-8"?>
<!-- Generator: Adobe Illustrator 21.0.0, SVG Export Plug-In . SVG Version: 6.00 Build 0)  -->
<svg version="1.1" id="Isolation_Mode" xmlns="http://www.w3.org/2000/svg" xmlns:xlink="http://www.w3.org/1999/xlink" x="0px"
	 y="0px" viewBox="0 0 500 500" style="enable-background:new 0 0 500 500;" xml:space="preserve">
<style type="text/css">
	.st0{fill:#EB5345;}
</style>
<path class="st0" d="M35.9,227.3c32.9,20.4,76.4-15.2,109.2,13.2c2.3,2,18,16,20.6,37c1.5,12.2-0.1,20.6-5.6,31
	c-36.4,69.7-12.6,111,19.1,129.2c31.7,18.2,33.3-22.4,103.7-44.1c31.3-9.7,69.8,2,86.5-9.7c15.1-10.5,4.7-31.9,6.8-53.9
	c67.2-7.7,119.4-64.8,119.4-134.1c0-74.6-60.4-135-135-135c-22.6,0-43.9,5.6-62.6,15.4c-78.5-18.8-91.5-50.7-155-48.7
	c-18.6,0.6-84.7,2.7-118.6,52.5C-8.4,128.7,0.9,205.6,35.9,227.3z"/>
</svg>
