<?xml version="1.0" encoding="utf-8"?>
<!-- Generator: Adobe Illustrator 21.0.0, SVG Export Plug-In . SVG Version: 6.00 Build 0)  -->
<svg version="1.1" id="Isolation_Mode" xmlns="http://www.w3.org/2000/svg" xmlns:xlink="http://www.w3.org/1999/xlink" x="0px"
	 y="0px" viewBox="0 0 225.3 202.1" style="enable-background:new 0 0 225.3 202.1;" xml:space="preserve">
<style type="text/css">
	.st0{fill:url(#XMLID_2_);}
	.st1{fill:#161616;}
	
		.st2{fill:none;stroke:#000000;stroke-width:0.5;stroke-linecap:round;stroke-linejoin:round;stroke-miterlimit:10;stroke-dasharray:1;}
	.st3{fill:#FFFFFF;}
	.st4{fill:#1D1D1B;}
	.st5{fill:#FFCB9C;}
	.st6{fill:#D8D9DD;}
	.st7{fill:#960210;}
	.st8{fill:#BF0411;}
	.st9{fill:none;stroke:#141414;stroke-width:0.5;stroke-linecap:round;stroke-linejoin:round;}
	.st10{fill:none;stroke:#141414;stroke-width:0.5;stroke-linecap:round;stroke-linejoin:round;stroke-dasharray:1.0062,1.0062;}
	.st11{fill:none;stroke:#000000;stroke-width:0.5;stroke-linecap:round;stroke-linejoin:round;}
	.st12{fill:none;stroke:#000000;stroke-width:0.5;stroke-linecap:round;stroke-linejoin:round;stroke-dasharray:1.0153,1.0153;}
	.st13{fill:#FF6252;}
	.st14{fill:none;stroke:#000000;stroke-width:0.5;stroke-linecap:round;stroke-linejoin:round;stroke-dasharray:0.997,0.997;}
	
		.st15{fill:none;stroke:#141414;stroke-width:0.5;stroke-linecap:round;stroke-linejoin:round;stroke-miterlimit:10;stroke-dasharray:1;}
	.st16{fill:none;stroke:#FFFFFF;stroke-miterlimit:10;}
	.st17{fill:none;stroke:#FFFFFF;stroke-linecap:round;stroke-linejoin:round;stroke-miterlimit:10;}
</style>
<linearGradient id="XMLID_2_" gradientUnits="userSpaceOnUse" x1="114.6476" y1="7.2569" x2="114.6476" y2="202.0662">
	<stop  offset="0" style="stop-color:#2ACAFF"/>
	<stop  offset="1" style="stop-color:#2ADFC3"/>
</linearGradient>
<path id="XMLID_12_" class="st0" d="M35.9,167.8c0,0-50.8-35.1,0-83.1c50.8-48,109.8-75.8,146.6-77.4s42.6,86.8,20.5,145
	C180.9,210.4,105.5,220.3,35.9,167.8z"/>
<g id="XMLID_362_">
	<g id="XMLID_342_">
		<path id="XMLID_460_" d="M157.5,28.7c0,0-5.5,7.4-2.5,12.2c3,4.7,10.2-4.2,10.2-4.2L157.5,28.7z"/>
		<path id="XMLID_454_" d="M183.5,42.5c0,0,0.7,8.1,0,10.1c-0.7,2-3.7,3-3.7,3l-3.7-13.1H183.5z"/>
		<g id="XMLID_94_">
			<path id="XMLID_97_" class="st1" d="M164.2,79.2c6.4-4.3,15-0.5,16.2,7.1c1,6.3,1,14-2.2,21.5c-5.5,13.2-30,15.4-50-10.3l5.3-6
				c0,0,13.5,11.5,21,11.8c4.9,0.2,7.6-5,6.4-9.7c-0.1-0.2-0.4-1.2-0.8-2.4C158.7,86.8,160.3,81.8,164.2,79.2L164.2,79.2z"/>
			<path id="XMLID_96_" class="st2" d="M131.8,96c0,0,17,21.3,34.2,13c17.2-8.3,4.6-30.4,4.6-30.4"/>
		</g>
		<g id="XMLID_432_">
			<g id="XMLID_435_">
				<path id="XMLID_436_" class="st3" d="M140.6,166.9l3.6,8.3c0.5,1.1-2,0.5-3.2,0.9l-1.9,0.6L136,169L140.6,166.9z"/>
			</g>
			<g id="XMLID_433_">
				<path id="XMLID_434_" d="M142.3,174.2c1.3-0.2,2.6,0.5,3.1,1.8c0.4,1.1,0.7,2.4,0.2,3.6c-1.1,2.7-20.2,0.2-20.2,0.2
					s-0.7-0.4,0.6-0.9l9-3.1c0,0,2.8-1.7,5.4-1.6C140.9,174.2,141.8,174.3,142.3,174.2z"/>
			</g>
		</g>
		<g id="XMLID_430_">
			<path id="XMLID_431_" class="st1" d="M124.3,118.7c6.8-0.2,26.1,0.4,44.1,6.5c3.1,1.1,14.5,0.1,19.4,1
				c-1,7.2-12.3,20.3-16.4,26.5c-8.2-1.2-22.8-4-29.9-9.4c0,0-1.3,14.1-0.2,18.5c0.4,1.8,1,4.4,1.6,6.8c-2,0.8-3.9,1.9-5.8,3
				c-4.5-7.5-17-29.1-19.1-38.4C115.4,122,119.2,118.9,124.3,118.7z"/>
		</g>
		<path id="XMLID_429_" d="M205,139.1c0,0,6.1,8.7-1.9,10.2C195.1,150.9,194.2,136.7,205,139.1z"/>
		<g id="XMLID_427_">
			<path id="XMLID_428_" class="st3" d="M198.9,176.7l8.3-0.5c1.2-0.1,0.6,2,0.6,3.2l1.3,1.5l-9.8,0.9L198.9,176.7z"/>
		</g>
		<g id="XMLID_425_">
			<path id="XMLID_426_" d="M208,181.8c-2-0.6-3.3-2.6-2.8-4.6c0.1-0.6,0.4-1.2,0.9-1.7c1.9-2.2,19.2,6.4,19.2,6.4s0.5,0.6-0.8,0.7
				l-9.5,0c0,0-4.2,0.6-6-0.4C208.6,182,208.3,181.9,208,181.8z"/>
		</g>
		<g id="XMLID_423_">
			<path id="XMLID_424_" d="M149.6,169.8c2.9-6.1,13.2-24.3,29.3-34.6c2.8-1.8,5.8-5,8.8-8.9c6,4.1,9.8,10.4,13.5,16.9
				c-4.8,6.8-13.9,18.5-21.8,22.4c0,0,12,7.5,16.4,8.5c1.8,0.4,4.4,1.1,6.8,1.6c-0.2,2.2-0.1,4.3,0,6.5c-8.7,0.6-33.7,2-42.9-0.3
				C148.5,179.2,147.4,174.4,149.6,169.8z"/>
		</g>
		<g id="XMLID_421_">
			<path id="XMLID_422_" class="st1" d="M167,142.3c3.3,7.9,3.4,12.4,12.1,12.4c8.6,0,22.6-1.8,23.6-12.9c0.8-8.6-7-15.6-15.6-15.6
				C178.5,126.3,153.6,110.5,167,142.3z"/>
		</g>
		<path id="XMLID_420_" class="st4" d="M201,75c9.8,13.3,20.3,40.7,6.1,71.9c0,0-6.3-16-30.3-17.9c-24-1.9-23.3-13.6-23.1-18.5
			c0.2-4.4-0.2-37.1,27.3-45.4C187.4,63.2,196.3,68.8,201,75z"/>
		<path id="XMLID_418_" class="st5" d="M155.6,49.4c1.5,5.3,4,9.9,12.9,11.6c0,0,4.2,0.8,4.4,6.8c0.1,6,15.7,1.9,11.5-5.4
			c-4.2-7.3-1.5-15,0.1-20.9c1.6-5.8-2.5-16.3-10-17.6c-5.6-0.9-8.6,0.5-12.2,3.5C156,32.7,153.4,41.7,155.6,49.4z"/>
		<path id="XMLID_415_" class="st6" d="M172.6,68.8h3.1l3.3,2.3l-3.6,8.8L162,101.1l-2.8,3.2l-0.3-13.5l2.3-7.9l4.9-8.2l4.1-3.6
			L172.6,68.8z"/>
		<path id="XMLID_414_" d="M178.1,71.9l-18.9,32.4l12.4-5.8c1.4-0.6,2.2-2,2.2-3.5v-4.5c0-1.7,1.1-3.1,2.6-3.7l6.3-2.1
			c1.4-0.5,2.4-1.7,2.6-3.2l2.1-16.2L178.1,71.9z"/>
		<path id="XMLID_413_" d="M162.6,78.2l-3.4,26.1l-2.5-14.4c-0.2-0.9,0-1.8,0.5-2.6L162.6,78.2z"/>
		<path id="XMLID_412_" d="M172.3,69.5c0,0-6.6,4.9-10.6,15.8l0.9-7.1C162.6,78.2,167.9,70.5,172.3,69.5z"/>
		<path id="XMLID_411_" class="st3" d="M187.5,65.4l-3.8-4.8l-9.9,8.3l0.7,4.7C174.6,73.6,183.9,69.6,187.5,65.4z"/>
		<polygon id="XMLID_410_" class="st3" points="173.9,68.8 171.4,72.4 170.8,69.8 172.9,67.7 		"/>
		<polygon id="XMLID_409_" class="st7" points="171.7,72.7 164.8,82.4 160.4,95 159.2,104.3 165.2,94 171.3,83.6 173.9,73.3 		"/>
		<path id="XMLID_408_" class="st8" d="M173.9,68.8l0.6,3.8c0.1,0.3-0.1,0.7-0.4,0.9l-1,0.7c-0.6,0.4-1.3,0-1.3-0.7l-0.1-1.1
			c0-0.2,0-0.4,0.1-0.5L173.9,68.8z"/>
		<circle id="XMLID_406_" class="st1" cx="159.7" cy="106.8" r="1"/>
		<circle id="XMLID_405_" class="st1" cx="159.2" cy="113" r="1"/>
		<circle id="XMLID_404_" class="st1" cx="159.2" cy="120.9" r="1"/>
		<g id="XMLID_394_">
			<g>
				<path class="st9" d="M174.3,155.1c-0.1,0.1-0.2,0.2-0.3,0.4"/>
				<path class="st10" d="M173.2,156.2c-4.7,5.1-11.6,12.9-3.6,17.4c9.5,4.8,21.4,4.9,31.9,5.2"/>
				<path class="st9" d="M202,178.9c0.2,0,0.3,0,0.5,0"/>
			</g>
		</g>
		<g id="XMLID_392_">
			<g>
				<path class="st11" d="M194.4,89c0,0,0,0.2,0.1,0.5"/>
				<path class="st12" d="M194.8,90.5c1.4,5.8,5.8,27.4-4.3,40.7"/>
				<path class="st11" d="M190.2,131.5c-0.1,0.1-0.2,0.3-0.3,0.4"/>
			</g>
		</g>
		<path id="XMLID_391_" class="st2" d="M140.1,170c0,0-18.3-35.2-9.4-38.7c8.9-3.5,34.8,7.6,34.8,7.6s23.4,11.3,31.4-2.7"/>
		<polygon id="XMLID_365_" class="st13" points="162.6,36.2 158.6,47.5 164.7,47.4 		"/>
		<path id="XMLID_393_" class="st1" d="M152.4,148.6c0,0,29.8,14.9,47,0.2l-22.6-3.6l-13.8-1.1L152.4,148.6z"/>
		<path id="XMLID_344_" class="st5" d="M184.7,37.2l-2.1,9.3c2.6,0.2,4.8-1.7,5-4.3c0.2-2.6-1.7-4.8-4.3-5"/>
		<path id="XMLID_340_" d="M183.7,38.2l-2.2,9.1l0,0c-1.4-0.5-2.3-1.9-2-3.4c0.5-2.8,1-7.2-0.1-9.6c-1.7-3.7-7,1.3-12.5,0.8
			c-5.5-0.5-10.3-1.6-11-7.1c-0.8-5.5,0.5-16.4,12.4-17.9C181.6,8.6,183,27,186.8,29.6c5,3.4-1.1,8.6-1.1,8.6S185,37.2,183.7,38.2z"
			/>
		<circle id="XMLID_93_" cx="166.5" cy="20.6" r="14.6"/>
		<ellipse id="XMLID_455_" cx="157.5" cy="40.9" rx="0.8" ry="1.6"/>
		<ellipse id="XMLID_456_" cx="167" cy="40.9" rx="0.8" ry="1.6"/>
		<path id="XMLID_461_" d="M179.8,42.5c0,0-10.1,9.2-24.4,6.1c0,0,0.2,15.5,14.6,15.5c13.7,0,11.6-16.8,11.6-16.8L179.8,42.5z"/>
		<g id="XMLID_369_">
			<g id="XMLID_95_">
				<path id="XMLID_371_" class="st3" d="M164.6,51.6c0,0-1.5-0.4-2.6-0.1c-1.1,0.3-2.1,0.9-1.9,2.4c0.1,1.4,1.8,2.1,3.6,2.6
					c1.1,0.2,4.6,0,6.1-1.4c1.6-1.3,2.3-2.3,2.4-3.6c0.1-1.3-1.2-2.3-2.2-2.4c-1-0.1-1.9,0.6-2.3,1.1
					C167.4,50.6,166.5,51.8,164.6,51.6z"/>
			</g>
		</g>
	</g>
	<g id="XMLID_193_">
		<g id="XMLID_395_">
			<path id="XMLID_397_" class="st4" d="M52.8,70.4c-7.4,2.1-10,11.2-4.9,17c4.2,4.8,10.1,9.7,17.9,12.2
				c13.7,4.3,31.1-13.1,24.2-44.9l-8,0.2c0,0,0.2,17.7-4.4,23.7c-3,3.9-8.7,2.6-11.5-1.3c-0.1-0.2-0.7-1.1-1.3-2.2
				C62.1,71,57.3,69.1,52.8,70.4L52.8,70.4z"/>
			<path id="XMLID_396_" class="st2" d="M86.5,56.3c0,0,5.4,26.7-12,34.5c-17.3,7.9-26.3-16-26.3-16"/>
		</g>
		<circle id="XMLID_345_" cx="71.2" cy="45.6" r="3.7"/>
		<g id="XMLID_263_">
			<g id="XMLID_266_">
				<path id="XMLID_267_" class="st3" d="M87.4,166.9l-3.6,8.3c-0.5,1.1,2,0.5,3.2,0.9l1.9,0.6l3.2-7.8L87.4,166.9z"/>
			</g>
			<g id="XMLID_264_">
				<path id="XMLID_265_" d="M85.7,174.2c-1.3-0.2-2.6,0.5-3.1,1.8c-0.4,1.1-0.7,2.4-0.2,3.6c1.1,2.7,20.2,0.2,20.2,0.2
					s0.7-0.4-0.6-0.9l-9-3.1c0,0-2.8-1.7-5.4-1.6C87.1,174.2,86.2,174.3,85.7,174.2z"/>
			</g>
		</g>
		<g id="XMLID_254_">
			<path id="XMLID_255_" d="M103.8,118.7c-6.8-0.2-26.1,0.4-44.1,6.5c-3.1,1.1-14.5,0.1-19.4,1c1,7.2,12.3,20.3,16.4,26.5
				c8.2-1.2,22.8-4,29.9-9.4c0,0,1.3,14.1,0.2,18.5c-0.4,1.8-1,4.4-1.6,6.8c2,0.8,3.9,1.9,5.8,3c4.5-7.5,17-29.1,19.1-38.4
				C112.7,122,108.9,118.9,103.8,118.7z"/>
		</g>
		<path id="XMLID_268_" d="M23,139.1c0,0-6.1,8.7,1.9,10.2C33,150.9,33.9,136.7,23,139.1z"/>
		<g id="XMLID_261_">
			<path id="XMLID_262_" class="st3" d="M29.2,176.7l-8.3-0.5c-1.2-0.1-0.6,2-0.6,3.2l-1.3,1.5l9.8,0.9L29.2,176.7z"/>
		</g>
		<g id="XMLID_259_">
			<path id="XMLID_260_" d="M21.3,182c2-0.6,3.3-2.6,2.8-4.6c-0.1-0.6-0.4-1.2-0.9-1.7c-1.9-2.2-19.2,6.4-19.2,6.4s-0.5,0.6,0.8,0.7
				l9.5,0c0,0,4.2,0.6,6-0.4C20.7,182.2,21,182.1,21.3,182z"/>
		</g>
		<g id="XMLID_257_">
			<path id="XMLID_258_" class="st1" d="M78.4,169.8c-2.9-6.1-13.2-24.3-29.3-34.6c-2.8-1.8-5.8-5-8.8-8.9
				c-6,4.1-9.8,10.4-13.5,16.9c4.8,6.8,13.9,18.5,21.8,22.4c0,0-12,7.5-16.4,8.5c-1.8,0.4-4.4,1.1-6.8,1.6c0.2,2.2,0.1,4.3,0,6.5
				c8.7,0.6,33.7,2,42.9-0.3C79.6,179.2,80.6,174.4,78.4,169.8z"/>
		</g>
		<g id="XMLID_246_">
			<path id="XMLID_253_" class="st1" d="M61.1,142.3c-3.3,7.9-0.1,23.8-8.7,23.8s-25.9-13.2-27-24.3c-0.8-8.6,7-15.6,15.6-15.6
				C49.6,126.3,74.4,110.5,61.1,142.3z"/>
		</g>
		<path id="XMLID_230_" class="st4" d="M27.1,75c-9.8,13.3-20.3,40.7-6.1,71.9c0,0,6.3-16,30.3-17.9c24-1.9,23.3-13.6,23.1-18.5
			c-0.2-4.4,0.2-37.1-27.3-45.4C40.7,63.2,31.7,68.8,27.1,75z"/>
		<polygon id="XMLID_129_" class="st1" points="53,131.9 70.7,156.8 51.5,141.3 		"/>
		<path id="XMLID_309_" class="st5" d="M72.4,49.4c-1.5,5.3-4,9.9-12.9,11.6c0,0-4.2,0.8-4.4,6.8c-0.1,6-15.7,1.9-11.5-5.4
			c4.2-7.3,1.5-15-0.1-20.9c-1.6-5.8,2.5-16.3,10-17.6c5.6-0.9,8.6,0.5,12.2,3.5C72,32.7,74.6,41.7,72.4,49.4z"/>
		<path id="XMLID_308_" class="st5" d="M45.3,45.6c-2,0.2-3.8-1.4-4-3.4c-0.2-2,1.4-3.8,3.4-4"/>
		<path id="XMLID_315_" class="st6" d="M57.8,71l4.1,3.6l4.9,8.2l2.3,7.9l-0.3,13.5l-2.8-3.2L52.7,79.8L49,71.1l3.3-2.3h3.1L57.8,71
			z"/>
		<path id="XMLID_311_" d="M49.9,71.9l18.9,32.4l-12.4-5.8c-1.4-0.6-2.2-2-2.2-3.5v-4.5c0-1.7-1.1-3.1-2.6-3.7l-6.3-2.1
			c-1.4-0.5-2.4-1.7-2.6-3.2l-2.1-16.2L49.9,71.9z"/>
		<path id="XMLID_313_" d="M65.5,78.2l3.4,26.1l2.5-14.4c0.2-0.9,0-1.8-0.5-2.6L65.5,78.2z"/>
		<path id="XMLID_312_" d="M55.7,69.5c0,0,6.6,4.9,10.6,15.8l-0.9-7.1C65.5,78.2,60.1,70.5,55.7,69.5z"/>
		<path id="XMLID_233_" class="st3" d="M40.5,65.4l3.8-4.8l9.9,8.3l-0.7,4.7C53.4,73.6,44.1,69.6,40.5,65.4z"/>
		<polygon id="XMLID_310_" class="st3" points="54.2,68.8 56.6,72.4 57.3,69.8 55.1,67.7 		"/>
		<polygon id="XMLID_92_" class="st7" points="56.4,72.7 63.2,82.4 67.6,95 68.8,104.3 62.8,94 56.8,83.6 54.2,73.3 		"/>
		<path id="XMLID_91_" class="st8" d="M54.2,68.8l-0.6,3.8c-0.1,0.3,0.1,0.7,0.4,0.9l1,0.7c0.6,0.4,1.3,0,1.3-0.7l0.1-1.1
			c0-0.2,0-0.4-0.1-0.5L54.2,68.8z"/>
		<circle id="XMLID_90_" class="st1" cx="68.3" cy="106.8" r="1"/>
		<circle id="XMLID_89_" class="st1" cx="68.8" cy="113" r="1"/>
		<circle id="XMLID_88_" class="st1" cx="68.8" cy="120.9" r="1"/>
		<g id="XMLID_87_">
			<g>
				<path class="st11" d="M33.6,134.1c0,0,0,0.2,0.1,0.5"/>
				<path class="st14" d="M34,135.5c1.1,2.9,4.5,9.6,14.1,15.7c14.6,9.2,15.7,17.2,12.1,20.7c-5.1,5-28.6,6.7-33.8,7"/>
				<path class="st11" d="M26,178.9c-0.3,0-0.5,0-0.5,0"/>
			</g>
		</g>
		<g id="XMLID_86_">
			<g>
				<path class="st11" d="M33.7,89c0,0,0,0.2-0.1,0.5"/>
				<path class="st12" d="M33.3,90.5c-1.4,5.8-5.8,27.4,4.3,40.7"/>
				<path class="st11" d="M37.9,131.5c0.1,0.1,0.2,0.3,0.3,0.4"/>
			</g>
		</g>
		<path id="XMLID_85_" class="st15" d="M62.5,138.8c0,0,25.9-11.1,34.8-7.6c8.9,3.5-9.4,38.7-9.4,38.7"/>
		<circle id="XMLID_128_" cx="47.4" cy="40.9" r="2.7"/>
		<circle id="XMLID_355_" cx="45.2" cy="39.2" r="2.7"/>
		<circle id="XMLID_84_" cx="48" cy="46.4" r="3.7"/>
		<circle id="XMLID_83_" cx="49.8" cy="52.6" r="3.7"/>
		<circle id="XMLID_82_" cx="52.8" cy="56.8" r="3.7"/>
		<circle id="XMLID_81_" cx="57.3" cy="60.5" r="3.7"/>
		<circle id="XMLID_79_" cx="63.1" cy="60.5" r="3.7"/>
		<circle id="XMLID_78_" cx="68.3" cy="55.7" r="3.7"/>
		<circle id="XMLID_346_" cx="63.1" cy="55.7" r="3.7"/>
		<circle id="XMLID_347_" cx="59.1" cy="55.7" r="3.7"/>
		<circle id="XMLID_348_" cx="55.4" cy="52" r="3.7"/>
		<circle id="XMLID_349_" cx="52.7" cy="47.5" r="3.7"/>
		<circle id="XMLID_354_" cx="48.9" cy="44.2" r="3.7"/>
		<circle id="XMLID_350_" cx="58" cy="48.3" r="3.7"/>
		<circle id="XMLID_351_" cx="61.5" cy="51.2" r="3.7"/>
		<circle id="XMLID_352_" cx="66.6" cy="51.2" r="3.7"/>
		<circle id="XMLID_353_" cx="72.7" cy="47.7" r="3"/>
		<circle id="XMLID_77_" cx="70.6" cy="51.1" r="3.7"/>
		<g id="XMLID_305_">
			<g id="XMLID_306_">
				<path id="XMLID_307_" class="st3" d="M64.3,49.9c0,0,1.5-0.4,2.6-0.1c1.1,0.3,2.1,0.9,1.9,2.4c-0.1,1.4-1.8,2.1-3.6,2.6
					c-1.1,0.2-4.6,0-6.1-1.4c-1.6-1.3-2.3-2.3-2.4-3.6c-0.1-1.3,1.2-2.3,2.2-2.4c1-0.1,1.9,0.6,2.3,1.1C61.5,49,62.4,50.2,64.3,49.9
					z"/>
			</g>
		</g>
		<ellipse id="XMLID_192_" cx="61.4" cy="39.2" rx="0.8" ry="1.6"/>
		<ellipse id="XMLID_357_" cx="70.3" cy="39.2" rx="0.8" ry="1.6"/>
		<path id="XMLID_359_" class="st16" d="M72.3,43.5h-3.9c-0.8,0-1.4-0.6-1.4-1.4v-5.5c0-0.8,0.6-1.4,1.4-1.4h3.9
			c0.8,0,1.4,0.6,1.4,1.4v5.5C73.7,42.9,73.1,43.5,72.3,43.5z"/>
		<polygon id="XMLID_304_" class="st13" points="65.6,35.2 69.6,46.5 63.5,46.4 		"/>
		<path id="XMLID_356_" class="st16" d="M62.6,43.5h-3.9c-0.8,0-1.4-0.6-1.4-1.4v-5.5c0-0.8,0.6-1.4,1.4-1.4h3.9
			c0.8,0,1.4,0.6,1.4,1.4v5.5C64.1,42.9,63.4,43.5,62.6,43.5z"/>
		<line id="XMLID_360_" class="st16" x1="67" y1="36.5" x2="64.1" y2="36.5"/>
		<line id="XMLID_361_" class="st17" x1="57.3" y1="37" x2="42.5" y2="38.2"/>
		<path id="XMLID_358_" class="st3" d="M111.6,44.1l-9.4,15.2c0,0-2.9,5.8-5.5,2.7c-0.5-0.6-0.7-1.3-0.8-2.1
			c-0.1-0.7-0.3-1.7-0.7-2.8c-0.1-2.3-0.9-4.4-2.5-5.9c-3.9-3.7-10.9-2.7-15.6,2.2c-4.7,4.9-5.4,11.9-1.5,15.7c1.4,1.3,3.1,2,5,2.2
			c1.2,0.3,2.3,0.4,3.1,0.1c2-0.6,3.8,3,0.7,5.3c-2.2,1.7-10.3,8.5-14.7,12.3c-1.7,1.4-1.9,3.9-0.6,5.6c3.5,4.5,9.9,12.7,12.7,16.1
			c4,4.8,5.9,3.1,6.9-1.8c1-4.9,3.6-11.5,10.5-11.2c6.9,0.2,10.1,4.2,10.8,9.1c0.7,4.9-2.8,8.8-7.2,10.7c-4.4,1.9-6.6,1.2-7,4.1
			c-0.5,2.9,4.8,6.1,11.4,9.5c3,1.5,5.5,3,7.3,4.1c1.9,1.2,4.5,0.6,5.7-1.4c3.3-5.7,9.6-15.9,11.6-16.8c2.8-1.4,4-0.9,5.1,3.8
			c0.1,0.7,0.4,1.4,0.7,2.1c0.2,1.9,1,3.7,2.4,5c3.9,3.7,10.9,2.7,15.6-2.2c4.7-4.9,5.4-11.9,1.5-15.7c-2.2-2.1-5.5-2.7-8.8-1.8
			c-2.3,0-4.7-1.9-3.1-4.4c1.3-2,10.9-9.7,15.9-13.7c1.7-1.4,2-3.8,0.8-5.6l-12.3-16.9c-0.5-0.7-1.3-1.3-2.1-1.5
			c-1.3-0.3-3.1-0.1-3.7,3.1c-1.1,5.4-3.1,11.4-11.5,11.2c-8.4-0.2-12.9-9.9-7.1-16.2c5.9-6.3,10.1-2.4,11.2-6.7c0,0,1-2.2-2.8-5.2
			c-0.1-0.1-0.3-0.2-0.5-0.3l-15.9-9.3C115.2,41.6,112.8,42.2,111.6,44.1z"/>
		<path id="XMLID_76_" class="st5" d="M74.4,57c0,0,4.6-10.6,5.3-11.3c0.8-0.7,1.6,0.2,0.8,2c-0.9,1.8-3.1,7.4-3.1,7.4
			s4.7-8.6,5.3-8.7c0.7-0.1,1.3,0.6,0.6,1.7c-0.8,1.1-3.6,7-3.6,7s3.3-4.6,4.3-5.4c1-0.8,0.8,1,0,2c-0.8,1-3.5,4.9-3.5,4.9
			s3.5-2.7,4.2-2.7c0.7,0,0.6,0.5,0.3,1c-0.4,0.4-4.4,3.4-4.4,3.4S79,62.7,76,63.5s-3.9-0.8-3.9-1.3c0-0.5,0.4-9.3,0.9-10.5
			c0.5-1.2,2-0.1,1.7,2C74.3,55.9,73.8,57.3,74.4,57z"/>
		<path id="XMLID_194_" class="st1" d="M40.5,72.7c-7.6,1.3-11.2,10-6.8,16.3c3.6,5.3,8.9,10.8,16.4,14.1
			c13.1,5.8,32.4-9.5,29.1-41.9l-8-0.7c0,0-1.8,17.6-7.1,23c-3.4,3.5-8.9,1.6-11.3-2.6c-0.1-0.2-0.5-1.1-1.1-2.3
			C49.7,74.3,45.1,71.9,40.5,72.7L40.5,72.7z"/>
		<path id="XMLID_75_" class="st5" d="M149.9,81.1c0,0-5-11.5-5.8-12.2c-0.8-0.8-1.8,0.3-0.8,2.2c1,1.9,3.4,8,3.4,8s-5-9.3-5.8-9.4
			c-0.7-0.2-1.4,0.6-0.6,1.8C141,72.6,144,79,144,79s-3.6-5-4.6-5.9c-1.1-0.9-0.9,1.1,0,2.1c0.8,1.1,3.8,5.4,3.8,5.4s-3.8-2.9-4.5-3
			c-0.8-0.1-0.7,0.6-0.3,1c0.4,0.5,4.7,3.7,4.7,3.7s1.8,4.8,5.1,5.7c3.2,0.9,4.3-0.8,4.2-1.4c0-0.5-0.4-10.1-1-11.4
			c-0.6-1.3-2.2-0.1-1.8,2.2C150,79.8,150.5,81.4,149.9,81.1z"/>
		<path id="XMLID_74_" class="st2" d="M75.6,62.5c0,0,2.3,27.1-15.8,33S35.5,76.6,35.5,76.6"/>
		<g id="XMLID_73_">
			<path id="XMLID_407_" class="st1" d="M187.2,84c7.5-1.8,14.2,4.7,12.7,12.3c-1.2,6.3-3.9,13.4-9.5,19.4
				c-9.7,10.5-33.5,4.1-43.3-26.9l7-3.8c0,0,8.7,15.4,15.7,18.4c4.5,1.9,8.9-2.1,9.3-6.9c0-0.2,0.1-1.3,0.1-2.5
				C179.4,89.2,182.6,85.1,187.2,84L187.2,84z"/>
			<path id="XMLID_390_" class="st2" d="M150.9,88.6c0,0,8.6,25.8,27.6,24s14.8-27,14.8-27"/>
		</g>
	</g>
</g>
</svg>
