<?xml version="1.0" encoding="utf-8"?>
<!-- Generator: Adobe Illustrator 21.0.0, SVG Export Plug-In . SVG Version: 6.00 Build 0)  -->
<svg version="1.1" id="Isolation_Mode" xmlns="http://www.w3.org/2000/svg" xmlns:xlink="http://www.w3.org/1999/xlink" x="0px"
	 y="0px" viewBox="0 0 394.9 330.4" style="enable-background:new 0 0 394.9 330.4;" xml:space="preserve">
<style type="text/css">
	.st0{fill:#FDFCFC;}
</style>
<path class="st0" d="M259.3,305.9c-23.6,3-47.5,3.5-71.3,4.4c-10.9,0.4-21.6-0.1-31.7,3.8c-9.4,3.7-17,11-26.7,14.2
	c-7.6,2.4-15.7,2.4-23.6,1.5C72.7,326,41.3,307.4,21.9,280C4.1,254.9-3.3,222.8,1.4,192.4c2.8-18.4,11.3-35.6,13.3-54.2
	c2.1-19.6-5.3-36.7-10.1-55.4c-3.3-13-4.7-26.5-4.3-39.9c0.3-7.7,1.2-15.7,4.9-22.5c9.9-18.5,35-22,55.9-19.9
	c25.9,2.6,51.7,10.6,74.5,23.1c18,9.9,35.8,24.4,56.4,28.3c23.3,4.4,41.3-11.5,62.2-18.8c47.1-16.4,104,15.8,124.7,58.5
	c25.6,52.8,22.7,139.1-25.3,178.2c-26.1,21.3-59.8,31.4-93.3,35.8C260,305.8,259.6,305.9,259.3,305.9z"/>
</svg>
