<?xml version="1.0" encoding="utf-8"?>
<!-- Generator: Adobe Illustrator 21.0.0, SVG Export Plug-In . SVG Version: 6.00 Build 0)  -->
<svg version="1.1" id="OBJECTS" xmlns="http://www.w3.org/2000/svg" xmlns:xlink="http://www.w3.org/1999/xlink" x="0px" y="0px"
	 viewBox="0 0 166.2 303.5" style="enable-background:new 0 0 166.2 303.5;" xml:space="preserve">
<style type="text/css">
	.st0{fill:#2C373F;}
	.st1{fill:#FFC5B1;}
	.st2{fill:#F97A5D;}
	.st3{fill:#21A097;}
	.st4{fill:#2AB3A9;}
	.st5{fill:#24B2A4;}
	.st6{fill:#FFFFFF;}
	.st7{fill:#F4B19F;}
	.st8{fill:#EDA091;}
</style>
<g>
	<g>
		<g>
			<path class="st0" d="M38.8,94.9c-2.1-5.2-2.9-11-6-15.7c-4.5-6.7-13.2-10-16.8-17.2c-1.6-3.1-2-6.6-2.1-10c0-6.8,2-14,7.2-18.3
				c6-5,15.1-4.9,22.1-1.6c7.1,3.3,12.4,9.4,17,15.7c4.6,6.3,8.6,13.1,13.9,18.8c4,4.2,8.6,7.9,11.6,12.8
				c8.2,13.6-0.2,30.8-14.7,35.7C58.5,119.4,43.2,105.8,38.8,94.9z"/>
			<g>
				<g>
					<path class="st1" d="M20.7,190.7c1.3,1-0.1,0.3,1.7,1.5c-0.4,4.6-4.6,7.4-4.6,7.4s-0.2,7.3-1.5,7.1c-1.4-0.1-0.5-7-0.5-7
						s-2.8,7.1-3.9,6.7c-1.2-0.5,3.1-8.7,3.1-8.7s-6,8.2-6.8,6.9c-0.8-1.3,4.4-9.2,4.4-9.2s-6.5,6.8-7.2,5.7
						c-0.7-1.1,7.7-10.5,7.7-10.5c-3.9,0-3.6-2.7-3.6-2.7l9.5,0.6C19,188.5,20.2,190.2,20.7,190.7z"/>
					<path class="st1" d="M111.7,53.9c1.6,0.3,0.4-0.3,2.5,0.4c3.5-3.2,3-8.1,3-8.1s5.8-4.7,4.9-5.6c-1-0.9-6,4-6,4s4.1-6.5,3-7.1
						c-1.1-0.6-5.2,7.7-5.2,7.7s3-9.6,1.4-9.4c-1.6,0.2-4.8,9-4.8,9s1.5-9,0.2-8.9c-1.4,0.1-3.5,12-3.5,12c-3.2-2.6-5.4-0.9-5.4-0.9
						l7,6.8C108.7,53.8,111,53.7,111.7,53.9z"/>
					<path class="st1" d="M71.9,93.5c2.9-0.5,11.9,5.4,9.6,17.2c-0.2,1-1.5,3.2-1.8,4.1c-0.4,1.1,2.8,5.3,2.8,5.3l-8.2,2.6
						c-0.4-2.5,0.2-6.1-2.4-7.2c-1-0.4-2.1-0.7-3-1.2c-2.5-1.4-3.9-4.4-4.9-6.9c-0.8-1.8-1.4-3.8-1.3-5.8
						C62.7,96.6,67.1,94.2,71.9,93.5z"/>
					<path class="st1" d="M88.3,125.9c0-4.3-1.4-5.9-5.8-5.9c-4.5,0-10.4,1.6-10.4,5.9c0,4.3,3.2,9.6,7.6,9.6
						C84.2,135.5,88.3,130.1,88.3,125.9z"/>
					<path class="st1" d="M84.8,117.9c0,0,13.9-14.3,16.7-28.4c2.8-14,7.5-36.8,7.5-36.8l5.3,1.4c0,0,2.5,31.1,0,35.9
						c-2.5,4.8-16.7,37.9-16.4,46.3L84.8,117.9z"/>
					<path class="st1" d="M60,124.9c0,0-4.7,0.8-11.9,17.2c-7.2,16.4-29.5,47-29.5,47l3.6,3.3c0,0,21.7-16.1,25.8-25.9
						c4.2-9.8,9.4-22,11.9-21.4C62.5,145.5,73.1,131,60,124.9z"/>
					<path class="st2" d="M97.2,138.6l6.5-17.9c0,0-1-8.4-13.8-11.4l-7.2,10.4L97.2,138.6z"/>
					<path class="st2" d="M62.2,123.5c0,0-7.6,0.6-13.8,14.2c0,0,6.8,9.4,11.8,9.7C60.1,147.4,78.6,131.6,62.2,123.5z"/>
				</g>
				<g>
					<path class="st1" d="M83.1,284.6c0,0-11,22.5-12.3,18.3c-1.3-4.2-0.9-14.2-0.2-15.6c0.7-1.4,5.2-7.7,5.2-7.7L83.1,284.6z"/>
					<path class="st3" d="M84,177.7l10.1-3.9c0,0,29.9,52.8,29.8,67.5c-0.1,14.7-41.1,44-41.1,44l-6.9-5.7c0,0,19.4-28.5,26.2-35.9
						c3.4-3.7-20.8-21.8-24.5-39.3C73.9,186.9,84,177.7,84,177.7z"/>
				</g>
				<g>
					<g>
						<path class="st1" d="M23.4,272.8c0,0-20.6,15.2-19.8,10.9c0.9-4.3,6-13,7.3-13.9c1.3-1,8.3-4.6,8.3-4.6L23.4,272.8z"/>
						<path class="st4" d="M56.6,196.4l29.8-17.3c0,0,1.2,60-6,73c-7.2,13-57.7,21.2-57.7,21.2l-3.4-8.1c0,0,31.2-18.6,40.7-22.2
							C69.6,239.4,56.6,196.4,56.6,196.4z"/>
					</g>
					<path class="st5" d="M74.3,167.3c0,0-21.9,7.8-17.8,29.1c4.2,21.3,11.2,25.3,11.2,25.3L80.3,201L93,174l-12.6-1.6L74.3,167.3z"
						/>
				</g>
				<path class="st2" d="M84.8,117.9c0,0,16.2,9.1,16.2,29.5c0,0-2.1,23.3-5.4,28.4c0,0-5.4,1.3-12.2,0c-7.1-1.4-13.9-6.4-13.9-6.4
					L64,141l-4.3-16.7l2.3-0.8l12.2-1.3c0,0-1.7,18.2,11.8,9.1c2.9-1.9-3.6-11.4-3.6-11.4L84.8,117.9z"/>
			</g>
			<polygon class="st6" points="94.7,40.6 128.5,60.4 147.6,24.4 115.8,6.7 			"/>
			<polygon class="st6" points="141.8,212.9 166,197.9 146,163 123.9,177.3 			"/>
			<g>
				<path class="st0" d="M22.5,64c0.1-0.1,0.8,0.6,2,2c1.2,1.4,2.8,3.5,4.4,6.3c1.6,2.8,3.2,6.4,4.4,10.6c1.2,4.1,2,8.8,3.8,13.3
					c0.9,2.2,2.1,4.3,3.5,6.1c1.4,1.8,2.9,3.4,4.5,4.8c3.2,2.7,6.6,4.6,9.6,5.6c3,1.1,5.6,1.6,7.3,1.8c1.8,0.2,2.8,0.2,2.8,0.3
					c0,0.1-1,0.2-2.8,0.2c-1.8,0-4.5-0.4-7.6-1.4c-3.1-1-6.7-2.8-10.1-5.6c-1.7-1.4-3.3-3.1-4.7-4.9c-1.4-1.9-2.7-4.1-3.6-6.4
					c-1.9-4.7-2.6-9.4-3.7-13.5c-1.1-4.1-2.5-7.6-4-10.5c-1.5-2.8-2.9-5-4-6.5C23,64.9,22.4,64.1,22.5,64z"/>
			</g>
			<g>
				<path class="st0" d="M64.1,40.9c0.2,0,0.5,3.3,2.4,8.2c0.9,2.5,2.3,5.3,4.3,8.1c1,1.4,2.1,2.8,3.4,4.2c1.3,1.4,2.7,2.8,4,4.4
					c2.7,3.2,4.5,6.7,6.2,9.8c1.7,3.1,3.1,6,3.8,8.7c0.7,2.6,0.8,4.9,0.5,6.4c-0.2,1.5-0.6,2.3-0.7,2.3c-0.1,0,0.1-0.8,0.1-2.3
					c0.1-1.5-0.1-3.6-0.9-6.1c-0.8-2.5-2.2-5.3-3.9-8.3c-1.8-3-3.6-6.4-6.2-9.5c-1.3-1.5-2.7-2.9-4-4.4c-1.3-1.4-2.5-2.9-3.5-4.4
					c-2-3-3.3-5.9-4.2-8.5c-0.9-2.6-1.2-4.7-1.4-6.2C64,41.7,64,40.9,64.1,40.9z"/>
			</g>
			<g>
				<path class="st2" d="M74.5,106.3c0-0.1,0.5-0.2,1.1-0.8c0.1-0.1,0.2-0.3,0.2-0.5c0-0.1-0.1-0.4-0.2-0.5
					c-0.2-0.1-0.3-0.2-0.6-0.2c-0.2,0-0.5,0.1-0.9,0.2c-0.8,0.1-1.5-0.4-1.9-0.8c-0.4-0.4-0.8-0.8-1-1.2c-0.5-0.7-0.7-1.3-0.6-1.3
					c0.1,0,0.4,0.4,1,1c0.3,0.3,0.6,0.7,1.1,1c0.4,0.3,0.9,0.6,1.4,0.6c0.3,0,0.6-0.2,1-0.2c0.4,0,0.8,0.1,1.1,0.4
					c0.3,0.3,0.4,0.6,0.4,1c-0.1,0.4-0.3,0.6-0.5,0.8C75.2,106.5,74.5,106.4,74.5,106.3z"/>
			</g>
			<path class="st6" d="M78.5,106.9l-6.5,2.4C72,109.3,77.5,114.1,78.5,106.9z"/>
			<ellipse transform="matrix(0.8849 -0.4659 0.4659 0.8849 -41.8821 44.9613)" class="st7" cx="70" cy="107.2" rx="1.5" ry="1"/>
			<ellipse transform="matrix(0.9243 -0.3816 0.3816 0.9243 -33.4776 37.4465)" class="st7" cx="77.7" cy="103.1" rx="1.5" ry="1"/>
			<path class="st8" d="M72.2,115.7c0,0,2.2,0.4,5-0.3c0,0-1.4,1.3-3.6,1.6C73.5,117.1,73,116.2,72.2,115.7z"/>
			<ellipse transform="matrix(0.6465 -0.7629 0.7629 0.6465 -51.2885 92.3773)" class="st0" cx="74" cy="101.5" rx="0.6" ry="0.6"/>
			<ellipse transform="matrix(0.6465 -0.7629 0.7629 0.6465 -54.7534 89.9308)" class="st0" cx="69.7" cy="104" rx="0.6" ry="0.6"/>
			<g>
				<path class="st0" d="M74.4,98.7c-0.1,0.2-0.6,0.2-1.2,0.4c-0.6,0.2-1.1,0.5-1.2,0.3c-0.2-0.1,0.2-0.8,1-1
					C73.9,98.1,74.5,98.5,74.4,98.7z"/>
			</g>
			<g>
				<path class="st0" d="M66.9,103.2c-0.1-0.1,0.1-0.7,0.6-1.4c0.6-0.6,1.3-0.8,1.4-0.7c0.1,0.2-0.4,0.6-0.9,1.1
					C67.5,102.9,67,103.3,66.9,103.2z"/>
			</g>
			<path class="st1" d="M64.4,108.1c0,0-2.1-1.8-3.1-0.2c-1,1.6,4.5,2.4,4.5,2.4L64.4,108.1z"/>
			<path class="st4" d="M14.2,267.9c0,0-3,1.3-3.8,2.1c-0.8,0.8-7.9,13.1-7,14.7s8.1-3.7,8.1-3.7S5.5,282.1,14.2,267.9"/>
			<path class="st4" d="M72.6,284.2c0,0-2.1,2.3-2.5,3.4c-0.3,1.1-0.9,15.3,0.6,16.3c1.5,1,5.7-6.9,5.7-6.9S71.5,300.9,72.6,284.2"
				/>
		</g>
	</g>
</g>
</svg>
